module gitlab.com/gitlab-org/gitaly/tools/protoc-gen-go-grpc

go 1.21

require (
	google.golang.org/grpc/cmd/protoc-gen-go-grpc v1.2.0
	google.golang.org/protobuf v1.28.0 // indirect
)

require github.com/google/go-cmp v0.5.9 // indirect
